TransactionDate: 06/05/2018 16:40:39
TransactionDate: 06/05/2018 16:40:39
TransactionDate: 06/05/2018 16:40:39
TransactionDate: 06/05/2018 16:40:39
TransactionDate: 06/05/2018 16:40:39
TransactionDate: 06/05/2018 16:40:39
TransactionDate: 06/05/2018 16:40:39
TransactionDate: 06/05/2018 16:40:39
TransactionDate: 06/05/2018 16:40:39
TransactionDate: 06/05/2018 16:40:42
TransactionDate: 06/05/2018 16:40:42
TransactionDate: 06/05/2018 16:40:42
TransactionDate: 06/05/2018 16:40:43
TransactionDate: 06/05/2018 16:40:43
TransactionDate: 06/05/2018 16:40:43
TransactionDate: 06/05/2018 16:40:46
TransactionDate: 06/05/2018 16:40:46
TransactionDate: 06/05/2018 16:40:46
TransactionDate: 06/05/2018 16:40:47
TransactionDate: 06/05/2018 16:40:47
TransactionDate: 06/05/2018 16:40:47
TransactionDate: 06/05/2018 16:40:48
TransactionDate: 06/05/2018 16:40:48
TransactionDate: 06/05/2018 16:40:49
TransactionDate: 06/05/2018 16:40:49
TransactionDate: 06/05/2018 16:40:49
TransactionDate: 06/05/2018 16:40:49
TransactionDate: 06/05/2018 16:40:51
TransactionDate: 06/05/2018 16:40:51
TransactionDate: 06/05/2018 16:40:51
TransactionDate: 06/05/2018 16:40:52
TransactionDate: 06/05/2018 16:40:52
TransactionDate: 06/05/2018 16:40:52
TransactionDate: 06/05/2018 16:40:57
TransactionDate: 06/05/2018 16:40:57
TransactionDate: 06/05/2018 16:40:57
TransactionDate: 06/05/2018 16:40:58
TransactionDate: 06/05/2018 16:40:58
TransactionDate: 06/05/2018 16:40:58
TransactionDate: 06/05/2018 16:40:59
TransactionDate: 06/05/2018 16:40:59
TransactionDate: 06/05/2018 16:40:59
TransactionDate: 06/05/2018 16:41:04
TransactionDate: 06/05/2018 16:41:04
TransactionDate: 06/05/2018 16:41:04
TransactionDate: 06/05/2018 16:41:05
TransactionDate: 06/05/2018 16:41:05
TransactionDate: 06/05/2018 16:41:05
TransactionDate: 06/05/2018 16:41:09
TransactionDate: 06/05/2018 16:41:09
TransactionDate: 06/05/2018 16:41:09
TransactionDate: 06/05/2018 16:41:10
TransactionDate: 06/05/2018 16:41:10
TransactionDate: 06/05/2018 16:41:10
TransactionDate: 06/05/2018 16:41:14
TransactionDate: 06/05/2018 16:41:14
TransactionDate: 06/05/2018 16:41:14
TransactionDate: 06/05/2018 16:41:17
TransactionDate: 06/05/2018 16:41:17
TransactionDate: 06/05/2018 16:41:17
TransactionDate: 06/05/2018 16:41:20
TransactionDate: 06/05/2018 16:41:20
TransactionDate: 06/05/2018 16:41:20
TransactionDate: 06/05/2018 16:41:21
TransactionDate: 06/05/2018 16:41:21
TransactionDate: 06/05/2018 16:41:21
TransactionDate: 06/05/2018 16:41:25
TransactionDate: 06/05/2018 16:41:25
TransactionDate: 06/05/2018 16:41:25
TransactionDate: 06/05/2018 16:41:27
TransactionDate: 06/05/2018 16:41:27
TransactionDate: 06/05/2018 16:41:27
TransactionDate: 06/05/2018 16:41:32
TransactionDate: 06/05/2018 16:41:32
TransactionDate: 06/05/2018 16:41:32
TransactionDate: 06/05/2018 16:41:33
TransactionDate: 06/05/2018 16:41:33
TransactionDate: 06/05/2018 16:41:33
TransactionDate: 06/05/2018 16:41:36
TransactionDate: 06/05/2018 16:41:36
TransactionDate: 06/05/2018 16:41:36
TransactionDate: 06/05/2018 16:41:40
TransactionDate: 06/05/2018 16:41:40
TransactionDate: 06/05/2018 16:41:40
TransactionDate: 06/05/2018 16:41:41
TransactionDate: 06/05/2018 16:41:41
TransactionDate: 06/05/2018 16:41:41
TransactionDate: 06/05/2018 16:41:47
TransactionDate: 06/05/2018 16:41:47
TransactionDate: 06/05/2018 16:41:47
TransactionDate: 06/05/2018 16:41:49
TransactionDate: 06/05/2018 16:41:49
TransactionDate: 06/05/2018 16:41:49
TransactionDate: 06/05/2018 16:41:51
TransactionDate: 06/05/2018 16:41:51
TransactionDate: 06/05/2018 16:41:51
TransactionDate: 06/05/2018 16:41:55
TransactionDate: 06/05/2018 16:41:55
TransactionDate: 06/05/2018 16:41:55
TransactionDate: 06/05/2018 16:41:56
TransactionDate: 06/05/2018 16:41:56
TransactionDate: 06/05/2018 16:41:56
TransactionDate: 06/05/2018 16:42:00
TransactionDate: 06/05/2018 16:42:00
TransactionDate: 06/05/2018 16:42:00
TransactionDate: 06/05/2018 16:42:01
TransactionDate: 06/05/2018 16:42:01
TransactionDate: 06/05/2018 16:42:01
TransactionDate: 06/05/2018 16:42:07
TransactionDate: 06/05/2018 16:42:07
TransactionDate: 06/05/2018 16:42:07
TransactionDate: 06/05/2018 16:43:33
TransactionDate: 06/05/2018 16:43:33
TransactionDate: 06/05/2018 16:43:33
TransactionDate: 06/05/2018 16:43:33
TransactionDate: 06/05/2018 16:43:33
TransactionDate: 06/05/2018 16:43:33
TransactionDate: 06/05/2018 16:43:36
TransactionDate: 06/05/2018 16:43:36
TransactionDate: 06/05/2018 16:43:36
TransactionDate: 06/05/2018 16:43:36
TransactionDate: 06/05/2018 16:43:36
TransactionDate: 06/05/2018 16:43:36
TransactionDate: 06/05/2018 16:43:37
TransactionDate: 06/05/2018 16:43:37
TransactionDate: 06/05/2018 16:43:37
TransactionDate: 06/05/2018 16:43:39
TransactionDate: 06/05/2018 16:43:39
TransactionDate: 06/05/2018 16:43:39
TransactionDate: 06/05/2018 16:43:39
TransactionDate: 06/05/2018 16:43:39
TransactionDate: 06/05/2018 16:43:39
TransactionDate: 06/05/2018 16:43:40
TransactionDate: 06/05/2018 16:43:40
TransactionDate: 06/05/2018 16:43:40
TransactionDate: 06/05/2018 16:43:42
TransactionDate: 06/05/2018 16:43:42
TransactionDate: 06/05/2018 16:43:42
TransactionDate: 06/05/2018 16:43:42
TransactionDate: 06/05/2018 16:43:42
TransactionDate: 06/05/2018 16:43:42
TransactionDate: 06/05/2018 16:43:43
TransactionDate: 06/05/2018 16:43:43
TransactionDate: 06/05/2018 16:43:43
TransactionDate: 06/05/2018 16:43:45
TransactionDate: 06/05/2018 16:43:45
TransactionDate: 06/05/2018 16:43:45
TransactionDate: 06/05/2018 16:43:45
TransactionDate: 06/05/2018 16:43:45
TransactionDate: 06/05/2018 16:43:45
TransactionDate: 06/05/2018 16:43:46
TransactionDate: 06/05/2018 16:43:46
TransactionDate: 06/05/2018 16:43:46
TransactionDate: 06/05/2018 16:43:48
TransactionDate: 06/05/2018 16:43:48
TransactionDate: 06/05/2018 16:43:48
TransactionDate: 06/05/2018 16:43:48
TransactionDate: 06/05/2018 16:43:48
TransactionDate: 06/05/2018 16:43:48
TransactionDate: 06/05/2018 16:43:49
TransactionDate: 06/05/2018 16:43:49
TransactionDate: 06/05/2018 16:43:49
TransactionDate: 06/05/2018 16:43:51
TransactionDate: 06/05/2018 16:43:51
TransactionDate: 06/05/2018 16:43:51
TransactionDate: 06/05/2018 16:43:51
TransactionDate: 06/05/2018 16:43:51
TransactionDate: 06/05/2018 16:43:51
TransactionDate: 06/05/2018 16:43:52
TransactionDate: 06/05/2018 16:43:52
TransactionDate: 06/05/2018 16:43:52
TransactionDate: 06/05/2018 16:43:54
TransactionDate: 06/05/2018 16:43:54
TransactionDate: 06/05/2018 16:43:54
TransactionDate: 06/05/2018 16:43:54
TransactionDate: 06/05/2018 16:43:54
TransactionDate: 06/05/2018 16:43:54
TransactionDate: 06/05/2018 16:43:55
TransactionDate: 06/05/2018 16:43:55
TransactionDate: 06/05/2018 16:43:55
TransactionDate: 06/05/2018 16:43:57
TransactionDate: 06/05/2018 16:43:57
TransactionDate: 06/05/2018 16:43:57
TransactionDate: 06/05/2018 16:43:57
TransactionDate: 06/05/2018 16:43:57
TransactionDate: 06/05/2018 16:43:57
TransactionDate: 06/05/2018 16:43:58
TransactionDate: 06/05/2018 16:43:58
TransactionDate: 06/05/2018 16:43:58
TransactionDate: 06/05/2018 16:44:00
TransactionDate: 06/05/2018 16:44:00
TransactionDate: 06/05/2018 16:44:00
TransactionDate: 06/05/2018 16:44:00
TransactionDate: 06/05/2018 16:44:00
TransactionDate: 06/05/2018 16:44:00
TransactionDate: 06/05/2018 16:44:01
TransactionDate: 06/05/2018 16:44:01
TransactionDate: 06/05/2018 16:44:01
TransactionDate: 06/05/2018 16:44:03
TransactionDate: 06/05/2018 16:44:03
TransactionDate: 06/05/2018 16:44:03
TransactionDate: 06/05/2018 16:44:03
TransactionDate: 06/05/2018 16:44:03
TransactionDate: 06/05/2018 16:44:03
TransactionDate: 06/05/2018 16:44:04
TransactionDate: 06/05/2018 16:44:04
TransactionDate: 06/05/2018 16:44:04
TransactionDate: 06/05/2018 16:44:06
TransactionDate: 06/05/2018 16:44:06
TransactionDate: 06/05/2018 16:44:06
TransactionDate: 06/05/2018 16:44:06
TransactionDate: 06/05/2018 16:44:06
TransactionDate: 06/05/2018 16:44:06
TransactionDate: 06/05/2018 16:44:07
TransactionDate: 06/05/2018 16:44:07
TransactionDate: 06/05/2018 16:44:07
TransactionDate: 06/05/2018 16:44:09
TransactionDate: 06/05/2018 16:44:09
TransactionDate: 06/05/2018 16:44:09
TransactionDate: 06/05/2018 16:44:09
TransactionDate: 06/05/2018 16:44:09
TransactionDate: 06/05/2018 16:44:09
TransactionDate: 06/05/2018 16:44:10
TransactionDate: 06/05/2018 16:44:10
TransactionDate: 06/05/2018 16:44:10
TransactionDate: 06/05/2018 16:44:12
TransactionDate: 06/05/2018 16:44:12
TransactionDate: 06/05/2018 16:44:12
TransactionDate: 06/05/2018 16:44:12
TransactionDate: 06/05/2018 16:44:12
TransactionDate: 06/05/2018 16:44:12
TransactionDate: 06/05/2018 16:44:15
TransactionDate: 06/05/2018 16:44:15
TransactionDate: 06/05/2018 16:44:15
TransactionDate: 06/05/2018 16:44:15
TransactionDate: 06/05/2018 16:44:15
TransactionDate: 06/05/2018 16:44:15
TransactionDate: 06/05/2018 16:44:15
TransactionDate: 06/05/2018 16:44:15
TransactionDate: 06/05/2018 16:44:15
TransactionDate: 06/05/2018 16:44:18
TransactionDate: 06/05/2018 16:44:18
TransactionDate: 06/05/2018 16:44:18
TransactionDate: 06/05/2018 16:44:18
TransactionDate: 06/05/2018 16:44:18
TransactionDate: 06/05/2018 16:44:18
TransactionDate: 06/05/2018 16:44:18
TransactionDate: 06/05/2018 16:44:18
TransactionDate: 06/05/2018 16:44:18
TransactionDate: 06/05/2018 16:44:21
TransactionDate: 06/05/2018 16:44:21
TransactionDate: 06/05/2018 16:44:21
TransactionDate: 06/05/2018 16:44:21
TransactionDate: 06/05/2018 16:44:21
TransactionDate: 06/05/2018 16:44:21
TransactionDate: 06/05/2018 16:44:21
TransactionDate: 06/05/2018 16:44:21
TransactionDate: 06/05/2018 16:44:21
TransactionDate: 06/05/2018 16:44:24
TransactionDate: 06/05/2018 16:44:24
TransactionDate: 06/05/2018 16:44:24
TransactionDate: 06/05/2018 16:44:24
TransactionDate: 06/05/2018 16:44:24
TransactionDate: 06/05/2018 16:44:24
TransactionDate: 06/05/2018 16:44:24
TransactionDate: 06/05/2018 16:44:24
TransactionDate: 06/05/2018 16:44:24
TransactionDate: 06/05/2018 16:44:27
TransactionDate: 06/05/2018 16:44:27
TransactionDate: 06/05/2018 16:44:27
TransactionDate: 06/05/2018 16:44:27
TransactionDate: 06/05/2018 16:44:27
TransactionDate: 06/05/2018 16:44:27
TransactionDate: 06/05/2018 16:44:27
TransactionDate: 06/05/2018 16:44:27
TransactionDate: 06/05/2018 16:44:27
