"Name","# requests","50%","66%","75%","80%","90%","95%","98%","99%","100%"
"POST /api/kafka",2907,600,800,1100,33000,84000,134000,141000,143000,167713
"POST /api/nonefficient",1483,500,670,870,13000,50000,63000,105000,121000,121805
"None Total",4390,550,760,1100,33000,84000,102000,140000,142000,167713